Chaohua Li Data Analysis Portfolio - R Coding Exercise
…
More data processing

#Find which years have missing data for infant mortality
africadata %>%
  group_by(year) %>%
  summarise(missing_n=sum(is.na(infant_mortality)))

# A tibble: 57 × 2
    year missing_n
   <int>     <int>
 1  1960        10
 2  1961        17
 3  1962        16
 4  1963        16
 5  1964        15
 6  1965        14
 7  1966        13
 8  1967        11
 9  1968        11
10  1969         7
# ℹ 47 more rows
…
